…
# Problem 1

## Visualizing Data

``` r
data("ny_noaa") 
print(ny_noaa)
```

    ## # A tibble: 2,595,176 × 7
    ##    id          date        prcp  snow  snwd tmax  tmin 
    ##    <chr>       <date>     <int> <int> <int> <chr> <chr>
    ##  1 US1NYAB0001 2007-11-01    NA    NA    NA <NA>  <NA> 
    ##  2 US1NYAB0001 2007-11-02    NA    NA    NA <NA>  <NA> 
    ##  3 US1NYAB0001 2007-11-03    NA    NA    NA <NA>  <NA> 
    ##  4 US1NYAB0001 2007-11-04    NA    NA    NA <NA>  <NA> 
    ##  5 US1NYAB0001 2007-11-05    NA    NA    NA <NA>  <NA> 
    ##  6 US1NYAB0001 2007-11-06    NA    NA    NA <NA>  <NA> 
    ##  7 US1NYAB0001 2007-11-07    NA    NA    NA <NA>  <NA> 
    ##  8 US1NYAB0001 2007-11-08    NA    NA    NA <NA>  <NA> 
    ##  9 US1NYAB0001 2007-11-09    NA    NA    NA <NA>  <NA> 
    ## 10 US1NYAB0001 2007-11-10    NA    NA    NA <NA>  <NA> 
    ## # ℹ 2,595,166 more rows
…
noaa_clean_df <-ny_noaa %>% 
janitor::clean_names() %>% 
  mutate(
    year = year(date),
    month = month(date, label = TRUE),
    day = day(date),
    tmax = as.numeric(tmax) / 10,  
    tmin = as.numeric(tmin) / 10,  
    prcp = prcp / 10   
  ) %>% 
  select(-date)
  print(noaa_clean_df)
```

    ## # A tibble: 2,595,176 × 9
    ##    id           prcp  snow  snwd  tmax  tmin  year month   day
    ##    <chr>       <dbl> <int> <int> <dbl> <dbl> <dbl> <ord> <int>
    ##  1 US1NYAB0001    NA    NA    NA    NA    NA  2007 Nov       1
    ##  2 US1NYAB0001    NA    NA    NA    NA    NA  2007 Nov       2
    ##  3 US1NYAB0001    NA    NA    NA    NA    NA  2007 Nov       3
    ##  4 US1NYAB0001    NA    NA    NA    NA    NA  2007 Nov       4
    ##  5 US1NYAB0001    NA    NA    NA    NA    NA  2007 Nov       5
    ##  6 US1NYAB0001    NA    NA    NA    NA    NA  2007 Nov       6
    ##  7 US1NYAB0001    NA    NA    NA    NA    NA  2007 Nov       7
    ##  8 US1NYAB0001    NA    NA    NA    NA    NA  2007 Nov       8
    ##  9 US1NYAB0001    NA    NA    NA    NA    NA  2007 Nov       9
    ## 10 US1NYAB0001    NA    NA    NA    NA    NA  2007 Nov      10
    ## # ℹ 2,595,166 more rows

## Finding the most commonly observed value for snowfall

``` r
noaa_clean_df %>% 
  count(snow) %>% 
  arrange(desc(n))
```

    ## # A tibble: 282 × 2
    ##     snow       n
    ##    <int>   <int>
    ##  1     0 2008508
    ##  2    NA  381221
    ##  3    25   31022
    ##  4    13   23095
    ##  5    51   18274
    ##  6    76   10173
    ##  7     8    9962
    ##  8     5    9748
    ##  9    38    9197
    ## 10     3    8790
    ## # ℹ 272 more rows
…
<img src="p8105_hw3_rcn2115_files/figure-gfm/unnamed-chunk-6-1.png" width="90%" />

``` r
tmax_tmin_df
```

    ## # A tibble: 2,595,176 × 9
    ##    id           prcp  snow  snwd  tmax  tmin  year month   day
    ##    <chr>       <dbl> <int> <int> <dbl> <dbl> <dbl> <ord> <int>
    ##  1 US1NYAB0001    NA    NA    NA    NA    NA  2007 Nov       1
    ##  2 US1NYAB0001    NA    NA    NA    NA    NA  2007 Nov       2
    ##  3 US1NYAB0001    NA    NA    NA    NA    NA  2007 Nov       3
    ##  4 US1NYAB0001    NA    NA    NA    NA    NA  2007 Nov       4
    ##  5 US1NYAB0001    NA    NA    NA    NA    NA  2007 Nov       5
    ##  6 US1NYAB0001    NA    NA    NA    NA    NA  2007 Nov       6
    ##  7 US1NYAB0001    NA    NA    NA    NA    NA  2007 Nov       7
    ##  8 US1NYAB0001    NA    NA    NA    NA    NA  2007 Nov       8
    ##  9 US1NYAB0001    NA    NA    NA    NA    NA  2007 Nov       9
    ## 10 US1NYAB0001    NA    NA    NA    NA    NA  2007 Nov      10
    ## # ℹ 2,595,166 more rows
…
    ## Rows: 250 Columns: 5
    ## ── Column specification ────────────────────────────────────────────────────────
    ## Delimiter: ","
    ## dbl (5): SEQN, sex, age, BMI, education
    ## 
    ## ℹ Use `spec()` to retrieve the full column specification for this data.
    ## ℹ Specify the column types or set `show_col_types = FALSE` to quiet this message.

``` r
print(covar_df)
```

    ## # A tibble: 231 × 6
    ##     seqn sex      age   bmi education                BMI
    ##    <dbl> <chr>  <dbl> <dbl> <chr>                  <dbl>
    ##  1 62161 male      22  23.3 high school equivalent  23.3
    ##  2 62164 female    44  23.2 more than high school   23.2
    ##  3 62169 male      21  20.1 high school equivalent  20.1
    ##  4 62174 male      80  33.9 more than high school   33.9
    ##  5 62177 male      51  20.1 high school equivalent  20.1
    ##  6 62178 male      80  28.5 high school equivalent  28.5
    ##  7 62180 male      35  27.9 more than high school   27.9
    ##  8 62184 male      26  22.1 high school equivalent  22.1
    ##  9 62189 female    30  22.4 more than high school   22.4
    ## 10 62191 male      70  NA   high school equivalent  NA  
    ## # ℹ 221 more rows
…
    ## Rows: 250 Columns: 1441
    ## ── Column specification ────────────────────────────────────────────────────────
    ## Delimiter: ","
    ## dbl (1441): SEQN, min1, min2, min3, min4, min5, min6, min7, min8, min9, min1...
    ## 
    ## ℹ Use `spec()` to retrieve the full column specification for this data.
    ## ℹ Specify the column types or set `show_col_types = FALSE` to quiet this message.

``` r
print(accel_df)
```

    ## # A tibble: 360,000 × 3
    ##     seqn   min  mims
    ##    <dbl> <dbl> <dbl>
    ##  1 62161     1 1.11 
    ##  2 62161     2 3.12 
    ##  3 62161     3 1.47 
    ##  4 62161     4 0.938
    ##  5 62161     5 1.60 
    ##  6 62161     6 0.145
    ##  7 62161     7 2.10 
    ##  8 62161     8 0.509
    ##  9 62161     9 1.63 
    ## 10 62161    10 1.20 
    ## # ℹ 359,990 more rows
…
